Modeling of Diabetes Health Indicators
…
# Reading in CSV file of DHI data
dhi_data <- read_csv("diabetes_binary_health_indicators_BRFSS2015.csv")

Rows: 253680 Columns: 22
── Column specification ────────────────────────────────────────────────────────
Delimiter: ","
dbl (22): Diabetes_binary, HighBP, HighChol, CholCheck, BMI, Smoker, Stroke,...

ℹ Use `spec()` to retrieve the full column specification for this data.
ℹ Specify the column types or set `show_col_types = FALSE` to quiet this message.

dhi_data

# A tibble: 253,680 × 22
   Diabetes_binary HighBP HighChol CholCheck   BMI Smoker Stroke
             <dbl>  <dbl>    <dbl>     <dbl> <dbl>  <dbl>  <dbl>
 1               0      1        1         1    40      1      0
 2               0      0        0         0    25      1      0
 3               0      1        1         1    28      0      0
 4               0      1        0         1    27      0      0
 5               0      1        1         1    24      0      0
 6               0      1        1         1    25      1      0
 7               0      1        0         1    30      1      0
 8               0      1        1         1    25      1      0
 9               1      1        1         1    30      1      0
10               0      0        0         1    24      0      0
# ℹ 253,670 more rows
# ℹ 15 more variables: HeartDiseaseorAttack <dbl>, PhysActivity <dbl>,
#   Fruits <dbl>, Veggies <dbl>, HvyAlcoholConsump <dbl>, AnyHealthcare <dbl>,
#   NoDocbcCost <dbl>, GenHlth <dbl>, MentHlth <dbl>, PhysHlth <dbl>,
#   DiffWalk <dbl>, Sex <dbl>, Age <dbl>, Education <dbl>, Income <dbl>
…
# fitting the model for non-subsetted data
class_fit <- class_wkflw |>
  tune_grid(resamples = dhi_cv,
            grid = class_grid,
            metrics = metric_set(mn_log_loss))

# Collecting metrics to find best fit
class_fit |>
  collect_metrics() |>
  filter(.metric == "mn_log_loss") |>
  arrange(mean)

# A tibble: 125 × 9
   cost_complexity tree_depth min_n .metric     .estimator  mean     n std_err
             <dbl>      <int> <int> <chr>       <chr>      <dbl> <int>   <dbl>
 1    0.0000000001          8     2 mn_log_loss binary     0.344     5 0.00135
 2    0.0000000178          8     2 mn_log_loss binary     0.344     5 0.00135
 3    0.00000316            8     2 mn_log_loss binary     0.344     5 0.00135
 4    0.0000000001          8    11 mn_log_loss binary     0.346     5 0.00183
 5    0.0000000178          8    11 mn_log_loss binary     0.346     5 0.00183
 6    0.00000316            8    11 mn_log_loss binary     0.346     5 0.00183
 7    0.0000000001          8    21 mn_log_loss binary     0.346     5 0.00142
 8    0.0000000178          8    21 mn_log_loss binary     0.346     5 0.00142
 9    0.00000316            8    21 mn_log_loss binary     0.346     5 0.00142
10    0.0000000001         11    30 mn_log_loss binary     0.347     5 0.00139
# ℹ 115 more rows
# ℹ 1 more variable: .config <chr>
…
